{
  "type": "mysql",
  "host": "localhost",
  "port": 3306,
  "username": "root",
  "password": "example",
  "database": "nest_micro_notes",
  "entities": ["dist/**/*.entity{.ts,.js}"],
  "migrations": ["dist/src/db/migrations/*.js"],
  "migrationsTableName": "nest_micro_notes_migrations",
  "cli": {
    "migrationsDir": ["src/db/migrations"]
  },
  "synchronize": true
}
